ISSS624 - Take-Home_Ex2
…
After the different trips have been categorized into their separate data frames, the total number trips for each origin bus stop can be tallied into a single statistic for the study period. This can be accomplished using the summarize() function. The example below shows this operation using passenger_wd_69.

Note

The group_by() function is used to instruct R to conduct operations based on the groups created by group_by(). In this case, the summary operations will be done based on the origin bus stop codes.

# Tallying the trips by origin bus stop for Weekday morning peak 6am - 9am
passenger_wd_69_tallied <- passenger_wd_69 %>%
  group_by(ORIGIN_PT_CODE, DESTINATION_PT_CODE) %>%
  summarise(TRIPS = sum(TOTAL_TRIPS))

passenger_wd_69_tallied

# A tibble: 238,511 × 3
# Groups:   ORIGIN_PT_CODE [5,020]
   ORIGIN_PT_CODE DESTINATION_PT_CODE TRIPS
   <fct>          <fct>               <dbl>
 1 01012          01112                 208
 2 01012          01113                 112
 3 01012          01121                  63
 4 01012          01211                 118
 5 01012          01311                 195
 6 01012          01621                   3
 7 01012          01639                   1
 8 01012          07371                  10
 9 01012          60011                  30
10 01012          60021                  18
# ℹ 238,501 more rows
…
